{
    "fulfillments": [
        {
            "fulfillmentId": 1523454,
            "orderId": 41110421,
            "orderNumber": "408330310",
            "userId": "5f9ecd51-81a8-4850-b4fa-093ae0f0b25e",
            "customerEmail": "donatella.chiacchierini@gmail.com",
            "trackingNumber": "",
            "createDate": "2019-04-30T16:15:32.0230000",
            "shipDate": "2019-05-01T00:00:00.0000000",
            "voidDate": null,
            "deliveryDate": null,
            "carrierCode": "Access Worldwide",
            "fulfillmentProviderCode": null,
            "fulfillmentServiceCode": null,
            "fulfillmentFee": 0.00,
            "voidRequested": false,
            "voided": false,
            "marketplaceNotified": false,
            "notifyErrorMessage": null,
            "shipTo": {
                "name": "Donatella Chiacchierini",
                "company": null,
                "street1": "Via degli operai 1 Santo chiodo zona industriale",
                "street2": null,
                "street3": null,
                "city": "Spoleto",
                "state": "Perugia",
                "postalCode": "06049",
                "country": "IT",
                "phone": "3338355091",
                "residential": null,
                "addressVerified": null
            }
        },],
    "total": 10958,
    "page": 1,
    "pages": 110
}
